{
  "extends": [
    "gitlab>nvalembois/renovate/renovate-config"
  ],
  "packageRules": [
    {
      "description": "No major update in major pathes requirements.txt",
      "matchFileNames": [ "ansible/*/requirements.txt" ],
      "major": {
        "enabled": false
      }
    }
  ]
}
